<svg width="20" height="20" xmlns="http://www.w3.org/2000/svg">
  <rect width="100%" height="100%" fill="black"/>
  <path stroke="{{foreground}}" stroke-width="1" fill="none"
        stroke-linecap="round" stroke-linejoin="round"
        d="M 10, 5
           h -5
           v 10
           h 5
           v -5
           l 5, -5
           v 10
           m 0, -5
           h -5
        "/>
<!-- Too see what what part is included in pfp -->
<!--
  <circle cx="50%" cy="50%" r="50%" fill="#ffffff20"/>
-->
</svg>
